…
```{r setup, include=FALSE}
knitr::opts_chunk$set(echo = FALSE)
```

# Untidy happens

It's not always possible to store *everything* in a `tidy` but hugmongous data store. So, we have things like SQL foreign keys. 

Unfortunately, the database may not have been set up with future `tidy` in mind. Or, database access is only provided through CSV files.

Here's an example of what can happen. We begin with some basic information, as `tidy` as we could wish.

    > patients
    # A tibble: 3,064 x 6
         INC_KEY   AGE GENDER MALE  FEMALE ADULT
           <int> <int> <chr>  <lgl> <lgl>  <lgl>
     1 150238916    59 Male   TRUE  FALSE  TRUE 
     2 150193078    37 Male   TRUE  FALSE  TRUE 
     3 150580164    29 Female FALSE TRUE   TRUE 
     4 150917895    82 Female FALSE TRUE   TRUE 
     5 150376887    58 Female FALSE TRUE   TRUE 
     6 150508153    35 Male   TRUE  FALSE  TRUE 
     7 150415059    21 Male   TRUE  FALSE  TRUE 
     8 150184182    24 Female FALSE TRUE   TRUE 
     9 150318438    20 Male   TRUE  FALSE  TRUE 
    10 150508148    64 Male   TRUE  FALSE  TRUE 
    # … with 3,054 more rows
    
A separate file contains variables of interest

    > d_codes
    # A tibble: 25,643 x 2
         INC_KEY DCODE 
           <int> <chr> 
     1 150284827 922.2 
     2 150284827 867.0 
     3 150284827 835.00
     4 150284827 808.51
     5 150284827 808.43
     6 150284827 808.2 
     7 150284827 805.6 
     8 150004383 924.8 
     9 150004383 919.0 
    10 150004383 901.0 
    # … with 25,633 more rows
…
