…
Untidy happens

It’s not always possible to store everything in a tidy but humongous data store. So, we have things like SQL foreign keys.

Unfortunately, the database may not have been set up with future tidy in mind. Or, database access is only provided through CSV files.

Here’s an example of what can happen. We begin with some basic information, as tidy as we could wish with not too much effort.

> patients %>% select(KEY, AGE, ADULT, GENDER, SURVIVED)
# A tibble: 3,065 x 5
      KEY   AGE ADULT GENDER SURVIVED
    <int> <int> <lgl> <chr>  <lgl>   
 1 238916    59 TRUE  Male   TRUE    
 2 193078    37 TRUE  Male   TRUE    
 3 580164    29 TRUE  Female TRUE    
 4 917895    82 TRUE  Female TRUE    
 5 376887    58 TRUE  Female TRUE    
 6 508153    35 TRUE  Male   TRUE    
 7 415059    21 TRUE  Male   TRUE    
 8 184182    24 TRUE  Female TRUE    
 9 318438    20 TRUE  Male   TRUE    
10 508148    64 TRUE  Male   TRUE    
# … with 3,055 more rows    

A separate file contains variables of interest

> assessment
# A tibble: 25,371 x 2
      KEY ASSESS
    <int>  <dbl>
 1 284827   922.
 2 284827   867 
 3 284827   835 
 4 284827   509.
 5 284827   508.
 6 284827   508.
 7 284827   506.
 8   4383   925.
 9   4383   919 
10   4383   901 
# … with 25,361 more rows
…
